{
  "CityAccidentness": 0,
  "ScorePercentTotal": 100,
  "TarifCoins": 25,
  "TarifCoinsBase": 31,
  "TarifCoinsStatistical": 0,
  "BalanceCoins": 0,
  "TimeZone": "Europe/Moscow",
  "AgentCell": null,
  "SupportCell": "+380445202201",
  "UserStatus": 10,
  "UTSNow": 1541577035,
  "ActiveJourney": null,
  "ScoringInfo": {
    "Header": "Манера вождения",
    "Message": "Влияние оценки манеры вождения за весь период на базовую стоимость одной минуты: -20%",
    "Buttons": null
  },
  "PeriodCostInfo": null,
  "MonthlyCostInfo": {
    "Header": "ЗАЩИТА НА СТОЯНКЕ",
    "Message": "Повреждение или гибель авто во время пребывания в \r\nнеподвижном состоянии в любом месте в любое время суток в результате:\r\n\r\n•  ДТП, произошедшего во время движения другого транспортного средства\r\n•  Влияния огня\r\n•  Взрыва\r\n•  Попадания молнии\r\n•  Стихийных бедствий\r\n•  Действий животных или птиц\r\n•  Падения на автомобиль посторонних предметов\r\n•  Противоправных действий третьих лиц\r\n \r\nСтоимость страхования от ущерба на стоянке за 3 месяца 393,13 грн",
    "Buttons": null
  },
  "MonthlyCostInfo2": {
    "Header": "ЗАЩИТА ОТ УГОНА",
    "Message": "Противоправное завладение транспортным средством в результате угона, а именно: кражи, грабежа или разбоя с любого места в любое время суток.\n\nСтоимость страхования от угона\nза 3 месяца 235,88 грн.",
    "Buttons": null
  },
  "CardIsAttached": false,
  "ActiveOrderDay": false,
  "PayCardInfo": {
    "Header": null,
    "Message": "Карта оплаты не привязана, при следующей оплате система попросит Вас ввести реквизиты карты.",
    "Buttons": null
  },
  "NextPayCoins": 39313,
  "StatusInfo": {
    "Header": "Отмена",
    "Message": "Оформить страховой полис",
    "Buttons": null
  },
  "RemainMinutes": 0,
  "InsuredDay": false,
  "ActiveCompanyID": 1086,
  "HasTariffDay": true,
  "HasTariffMinute": true,
  "HasTariffMinutesPack": false,
  "Postpay": true,
  "HasAccumulatedScore": false,
  "ActionCode": 1,
  "Code": 1,
  "Info": "",
  "InfoHeader": "",
  "Information": null
}